23

5
6
5
7
9
1
3
-5
-4
-1
3
5
10
4

4
1
10
4
3
1
-3
1
10

2
1
1
2
-1
-1
4
1
2
9
10

2
1
1
1
-1
2
10
5

5
6
2
5
1
5
4
-5
-4
-1
-2
4
7
6
9
3

5
3
10
8
4
5
4
-4
-4
-2
-2
5
8
4
6
10
2

3
6
8
10
3
-3
-2
-1
1
1

4
3
4
2
8
3
-1
-3
-1
2
9
4

5
4
8
2
7
4
5
-1
-1
-1
-1
-1
2
3
4

1
9
1
-1
2
7
8

5
9
8
8
4
7
2
-3
-3
1
3

4
3
1
3
10
1
-2
4
7
2
3
6

3
6
3
2
1
-3
1
10

4
9
2
8
6
3
-4
-2
-1
5
4
8
7
7
10

2
6
1
2
-2
-1
4
1
9
10
9

3
7
6
1
2
-3
-2
2
2
7

5
9
5
1
1
6
4
-5
-4
-1
-1
2
6
8

3
7
7
8
3
-2
-1
-1
5
3
6
7
10
3

5
6
5
7
1
1
5
-5
-2
-2
-1
-1
2
9
6

2
1
6
1
-2
5
4
9
3
9
10

4
4
1
8
6
3
-2
-1
-1
4
2
7
10
6

5
3
10
10
5
8
1
-5
1
6

1
8
1
-1
1
3
