20

2
2
9
7
4
-2
-1
11
-3
4
5
8

2

1
3
1
7
4
2
5
13
9
15
-9
-3
-4
-1
12
-1
14
-1
13

5
7
4
1
5

2
5
9
3
6
2
5
6
2
5
-8
9
-5
-5

5
5
1
3
5
5
-4
1
6
-6
3
5
-3
-6
2
2

3
1
5
5
-4
3
-3
4
-1

6
2
5
3
-1
2
-1
-1

3
10
5
-1
2
-1
1
4
1
6
1
3
2
2
-4
3
-7
-1

1
3
6
-2

3
-1
8

7
-1

1
5
1
-1
1
1
-2
-3
-2
1
1
6
1
1
-5

1
5
9
-2
5
1
6
-3
2
1
2
-3
3
5
1
3
-1
-1
-1
-1

5
7
-1
8
1

1
1
1
7
1
4
2
9
4
6
13
11
-1
-1
1
-9
11
-9
-1

6
-1
5
3
3
7
1
-1
-4
1
1
-3
1
2
4
-1
-4
1

1
-1
1
6

4
1
1
1
8
1
-2

13
1
-1
-1
