26

4
2
-2
-1
4
5
-2

9
4
10
8
5
-2
9
6
10
-4
-1
-1
-2
-2
-1

8
5
8
7
10
8
-3
-4

1
7
9
4
3

5
-1
9

1
5
-2
-1
7
7
1
8
10
-2
-3
-2

4
-1
10
-1

10
9
-1
-1
6
3
1
-2
-2
-1

7
10
-1
2
8
-1

6
7
7
4
4
-3
8

9
-1
10
6
4
-2

9
1
9
-1
8
-3

7
4
-1
-1
2
5
6
-1

8
1
7

6
1
9
3
3
2
1
1
-4
-3

2
-1
1
-1

7
5
5
-3
-2
1
3
5
1
7
-3

4
1
2
8
9
8
-6
-4
-1
-1
-2
-1

7
4
3
10
2
-1
-2
-3
-1
-1

8
2
4
1
9
-5
-3
-2
-1
6
4
2
4
6
-3
-2
-3
-1

8
10
8
9
-4
7
8
7
7
6
-6
-3
-1

4
4
7
7
-1
-2
4
9

3
5
-2
3
4
1
-1

5
9
-2
-1
2
7
4
-2
-2

10
6
1
7
9
9
-3
-2
-4
-1
-1
-1

4
7
4
9
3
-4
2
6
4
-4
