-8 -8 -40 912
-40 -24 -24 880
-8 -16 -16 8 -24 -24 -40 -16 776
-8 -8 -24 -32 -40 -40 -24 -40 712
-16 -24 -32 -24 32 -8 808
-32 952
-32 -32 -24 880
-24 8 -32 24 -16 848
-32 -32 88 -32 776
-16 -16 -32 -24 -24 -8 -24 -40 744
24 -8 -32 904
8 -32 -8 48 -40 816
-40 8 -16 -24 -40 -40 -16 -32 712
32 -40 -24 -8 -40 -16 -40 736
-8 -16 -24 -24 -32 848
-24 16 -40 -40 -8 -16 -40 752
-24 32 -8 -40 856
-16 24 -8 8 -24 -24 -40 -40 -32 704
-16 -8 -32 -32 -32 -24 -8 -16 -24 -24 -40 -8 632
-8 -24 -8 -16 -32 -32 -16 800
